<?xml version="1.0" encoding="UTF-8" standalone="no"?>
<!DOCTYPE svg PUBLIC "-//W3C//DTD SVG 1.1//EN"
 "http://www.w3.org/Graphics/SVG/1.1/DTD/svg11.dtd">
<!-- Generated by graphviz version 5.0.0 (20220707.1540)
 -->
<!-- Title: dependencies Pages: 1 -->
<svg width="745pt" height="174pt"
 viewBox="0.00 0.00 745.00 173.80" xmlns="http://www.w3.org/2000/svg" xmlns:xlink="http://www.w3.org/1999/xlink">
<g id="graph0" class="graph" transform="scale(1 1) rotate(0) translate(4 169.8)">
<title>dependencies</title>
<polygon fill="white" stroke="transparent" points="-4,4 -4,-169.8 741,-169.8 741,4 -4,4"/>
<text text-anchor="middle" x="368.5" y="-8.2" font-family="sans-serif" font-size="14.00">dependencies</text>
<g id="clust1" class="cluster">
<title>cluster_LoginModule</title>
<polygon fill="none" stroke="black" stroke-dasharray="1,5" points="8,-32.8 8,-157.8 729,-157.8 729,-32.8 8,-32.8"/>
</g>
<g id="clust2" class="cluster">
<title>cluster_LoginModule_declarations</title>
<polygon fill="none" stroke="black" points="138,-40.8 138,-92.8 721,-92.8 721,-40.8 138,-40.8"/>
</g>
<g id="clust7" class="cluster">
<title>cluster_LoginModule_imports</title>
<polygon fill="none" stroke="black" points="16,-40.8 16,-92.8 130,-92.8 130,-40.8 16,-40.8"/>
</g>
<!-- LoginComponent -->
<g id="node1" class="node">
<title>LoginComponent</title>
<polygon fill="#ffffb3" stroke="black" points="713.27,-84.8 598.73,-84.8 598.73,-48.8 713.27,-48.8 713.27,-84.8"/>
<text text-anchor="middle" x="656" y="-62.6" font-family="Times,serif" font-size="14.00">LoginComponent</text>
</g>
<!-- LoginModule -->
<g id="node5" class="node">
<title>LoginModule</title>
<polygon fill="#8dd3c7" stroke="black" points="403.49,-149.8 400.49,-153.8 379.49,-153.8 376.49,-149.8 310.51,-149.8 310.51,-113.8 403.49,-113.8 403.49,-149.8"/>
<text text-anchor="middle" x="357" y="-127.6" font-family="Times,serif" font-size="14.00">LoginModule</text>
</g>
<!-- LoginComponent&#45;&gt;LoginModule -->
<g id="edge1" class="edge">
<title>LoginComponent&#45;&gt;LoginModule</title>
<path fill="none" stroke="black" d="M656,-85.08C656,-106.12 656,-137.8 656,-137.8 656,-137.8 413.72,-137.8 413.72,-137.8"/>
<polygon fill="black" stroke="black" points="413.72,-134.3 403.72,-137.8 413.72,-141.3 413.72,-134.3"/>
</g>
<!-- LostpassComponent -->
<g id="node2" class="node">
<title>LostpassComponent</title>
<polygon fill="#ffffb3" stroke="black" points="580.33,-84.8 449.67,-84.8 449.67,-48.8 580.33,-48.8 580.33,-84.8"/>
<text text-anchor="middle" x="515" y="-62.6" font-family="Times,serif" font-size="14.00">LostpassComponent</text>
</g>
<!-- LostpassComponent&#45;&gt;LoginModule -->
<g id="edge2" class="edge">
<title>LostpassComponent&#45;&gt;LoginModule</title>
<path fill="none" stroke="black" d="M515,-84.82C515,-102.17 515,-125.8 515,-125.8 515,-125.8 413.55,-125.8 413.55,-125.8"/>
<polygon fill="black" stroke="black" points="413.55,-122.3 403.55,-125.8 413.55,-129.3 413.55,-122.3"/>
</g>
<!-- RegistrationComponent -->
<g id="node3" class="node">
<title>RegistrationComponent</title>
<polygon fill="#ffffb3" stroke="black" points="431.77,-84.8 282.23,-84.8 282.23,-48.8 431.77,-48.8 431.77,-84.8"/>
<text text-anchor="middle" x="357" y="-62.6" font-family="Times,serif" font-size="14.00">RegistrationComponent</text>
</g>
<!-- RegistrationComponent&#45;&gt;LoginModule -->
<g id="edge3" class="edge">
<title>RegistrationComponent&#45;&gt;LoginModule</title>
<path fill="none" stroke="black" d="M357,-84.91C357,-84.91 357,-103.79 357,-103.79"/>
<polygon fill="black" stroke="black" points="353.5,-103.79 357,-113.79 360.5,-103.79 353.5,-103.79"/>
</g>
<!-- SigninComponent -->
<g id="node4" class="node">
<title>SigninComponent</title>
<polygon fill="#ffffb3" stroke="black" points="263.9,-84.8 146.1,-84.8 146.1,-48.8 263.9,-48.8 263.9,-84.8"/>
<text text-anchor="middle" x="205" y="-62.6" font-family="Times,serif" font-size="14.00">SigninComponent</text>
</g>
<!-- SigninComponent&#45;&gt;LoginModule -->
<g id="edge4" class="edge">
<title>SigninComponent&#45;&gt;LoginModule</title>
<path fill="none" stroke="black" d="M205,-84.82C205,-102.17 205,-125.8 205,-125.8 205,-125.8 300.15,-125.8 300.15,-125.8"/>
<polygon fill="black" stroke="black" points="300.15,-129.3 310.15,-125.8 300.15,-122.3 300.15,-129.3"/>
</g>
<!-- SharedModule -->
<g id="node6" class="node">
<title>SharedModule</title>
<polygon fill="#8dd3c7" stroke="black" points="122.43,-84.8 119.43,-88.8 98.43,-88.8 95.43,-84.8 23.57,-84.8 23.57,-48.8 122.43,-48.8 122.43,-84.8"/>
<text text-anchor="middle" x="73" y="-62.6" font-family="Times,serif" font-size="14.00">SharedModule</text>
</g>
<!-- SharedModule&#45;&gt;LoginModule -->
<g id="edge5" class="edge">
<title>SharedModule&#45;&gt;LoginModule</title>
<path fill="none" stroke="black" d="M73,-85.08C73,-106.12 73,-137.8 73,-137.8 73,-137.8 300.42,-137.8 300.42,-137.8"/>
<polygon fill="black" stroke="black" points="300.42,-141.3 310.42,-137.8 300.42,-134.3 300.42,-141.3"/>
</g>
</g>
</svg>
